{
    "version": 2,
    "functions": {
        "api/*.php": {
            "runtime": "vercel-php@0.3.1"
        }
    },
    "routes": [
        {
            "src": "/(.*)",
            "dest": "/api/index.php"
        }
    ]
}